<?xml version="1.0" standalone="no"?>
<!DOCTYPE svg PUBLIC "-//W3C//DTD SVG 20010904//EN"
 "http://www.w3.org/TR/2001/REC-SVG-20010904/DTD/svg10.dtd">
<svg version="1.0" xmlns="http://www.w3.org/2000/svg"
 width="1024.000000pt" height="1024.000000pt" viewBox="0 0 1024.000000 1024.000000"
 preserveAspectRatio="xMidYMid meet">
<metadata>
Created by potrace 1.11, written by Peter Selinger 2001-2013
</metadata>
<g transform="translate(0.000000,1024.000000) scale(0.100000,-0.100000)"
fill="#000000" stroke="none">
<path d="M10025 7219 c-82 -16 -229 -42 -325 -59 -96 -16 -222 -39 -280 -49
-58 -10 -195 -35 -305 -55 -577 -105 -1085 -195 -1128 -201 -26 -4 -50 -11
-53 -16 -9 -15 296 -329 319 -329 11 0 67 15 126 34 270 87 460 149 626 201
99 31 263 84 365 117 102 33 205 66 229 74 25 8 46 12 49 10 2 -3 -268 -140
-600 -306 -331 -166 -607 -305 -611 -310 -10 -9 -91 -459 -84 -467 5 -5 177
83 257 131 91 55 88 55 128 10 21 -22 75 -87 121 -144 l85 -103 25 30 c14 16
125 145 246 287 232 272 794 931 921 1078 41 47 74 89 74 92 0 10 -26 6 -185
-25z"/>
<path d="M6195 6844 c-65 -7 -255 -44 -328 -64 -185 -51 -425 -162 -589 -271
-300 -201 -550 -482 -706 -796 -52 -102 -108 -241 -101 -246 17 -13 111 -67
117 -67 4 0 28 48 53 108 36 87 48 107 64 105 16 -1 382 -121 393 -128 1 -1
-2 -14 -7 -29 -9 -23 -51 -217 -51 -235 0 -4 21 -13 48 -20 26 -7 56 -14 67
-17 19 -5 23 5 49 119 16 69 32 130 36 137 6 9 42 4 146 -18 77 -17 181 -37
232 -43 50 -7 97 -16 103 -20 8 -4 6 -46 -6 -143 -10 -75 -16 -139 -13 -141 2
-3 36 -7 74 -11 l71 -7 16 138 c8 75 18 139 21 142 2 3 67 0 143 -6 77 -6 180
-11 231 -11 l91 0 3 -147 3 -148 72 -3 72 -3 3 148 3 148 60 2 c33 1 136 7
228 14 93 6 171 8 174 5 5 -5 32 -218 33 -263 0 -20 5 -23 44 -23 24 0 58 3
75 6 l32 7 -6 56 c-3 31 -11 96 -16 145 -8 66 -8 90 1 96 6 4 65 15 132 24 66
9 169 28 230 42 61 14 112 23 114 21 7 -6 41 -136 54 -202 20 -102 11 -95 88
-75 l67 17 -3 37 c-2 21 -16 88 -31 149 -16 62 -28 112 -27 113 1 1 361 122
389 131 14 4 23 -9 48 -63 16 -38 34 -78 39 -89 5 -11 14 -39 21 -62 7 -24 18
-43 26 -43 11 0 109 45 121 55 8 7 -46 151 -92 245 -176 359 -409 631 -721
839 -246 165 -480 262 -780 322 -91 18 -150 22 -340 24 -126 2 -248 1 -270 -1z
m-105 -320 c-44 -86 -94 -195 -113 -242 -28 -69 -39 -86 -54 -84 -32 6 -218
65 -227 73 -15 13 220 238 318 305 15 10 56 38 90 61 33 23 62 42 62 43 1 0
-33 -70 -76 -156z m260 -116 l0 -271 -97 7 c-54 4 -112 10 -130 14 l-32 7 33
80 c60 144 209 434 224 435 1 0 2 -122 2 -272z m188 220 c101 -179 230 -454
219 -465 -6 -6 -166 -23 -214 -23 l-43 0 0 270 c0 149 2 270 4 270 3 0 18 -24
34 -52z m272 -31 c66 -45 227 -186 294 -258 l58 -64 -38 -17 c-59 -25 -214
-67 -219 -58 -2 4 -18 45 -35 91 -17 46 -66 152 -109 236 l-78 152 41 -26 c22
-14 61 -40 86 -56z m-1088 -79 c-48 -46 -104 -103 -126 -128 -21 -25 -45 -46
-52 -48 -14 -4 -62 19 -111 51 l-31 21 29 18 c96 58 327 164 366 167 6 1 -27
-36 -75 -81z m1389 63 c50 -17 160 -69 287 -137 62 -32 61 -35 -37 -82 l-54
-26 -81 86 c-44 47 -105 106 -134 132 -29 25 -49 46 -44 46 5 0 33 -8 63 -19z
m-1736 -326 c39 -21 72 -40 74 -41 2 -2 -24 -44 -58 -94 -63 -94 -178 -316
-222 -428 -17 -45 -28 -62 -39 -59 -8 3 -53 16 -100 30 -131 39 -260 88 -260
98 0 18 65 112 147 214 80 99 187 208 293 298 49 42 56 45 75 33 11 -7 52 -30
90 -51z m2262 24 c87 -74 202 -190 277 -278 69 -82 182 -240 174 -245 -15 -13
-360 -126 -382 -126 -3 0 -6 5 -6 11 0 5 -9 29 -19 52 -10 23 -33 75 -49 114
-40 93 -132 259 -190 342 -25 36 -41 66 -36 68 5 2 47 25 94 53 47 27 86 49
87 49 1 1 23 -17 50 -40z m-1883 -185 c71 -24 131 -45 133 -48 2 -2 -12 -55
-31 -117 -19 -63 -49 -181 -67 -264 -17 -82 -33 -151 -34 -153 -5 -5 -205 26
-335 53 -67 14 -124 25 -126 25 -18 0 125 302 193 408 76 119 105 153 122 146
9 -3 74 -26 145 -50z m1553 -10 c66 -91 160 -263 210 -380 24 -58 42 -108 40
-111 -17 -17 -447 -88 -457 -76 -4 5 -17 58 -30 118 -13 61 -40 171 -61 245
-20 74 -39 143 -41 154 -2 15 12 23 87 46 50 15 113 37 140 48 28 11 55 19 60
18 6 -2 29 -29 52 -62z m-1084 -86 l127 -12 0 -261 0 -260 -177 6 c-228 8
-263 14 -263 42 0 33 45 224 87 375 l37 133 30 -5 c17 -3 88 -11 159 -18z
m596 4 c9 -17 19 -53 63 -212 23 -84 68 -293 64 -297 -8 -9 -203 -23 -313 -23
l-133 0 0 259 0 259 93 7 c50 4 112 11 137 15 71 12 79 11 89 -8z"/>
<path d="M3349 4915 c-10 -5 -82 -90 -159 -187 -78 -98 -144 -178 -148 -177
-7 0 -114 145 -121 164 -2 5 -7 12 -10 15 -4 3 -38 47 -75 98 l-68 92 -300 0
c-239 0 -298 -3 -291 -12 6 -7 45 -59 89 -115 43 -55 115 -148 159 -205 44
-56 110 -141 147 -188 l68 -84 2 -264 3 -263 265 0 265 0 3 262 c2 230 4 264
20 284 258 334 285 366 297 353 7 -7 57 -98 110 -203 54 -104 132 -253 172
-330 41 -77 84 -160 96 -184 63 -126 217 -192 410 -178 149 12 235 71 312 217
l48 90 45 -82 c71 -133 131 -184 252 -212 164 -39 336 0 426 96 30 31 63 90
233 418 42 80 126 241 186 357 l110 212 3 -550 2 -549 270 0 270 0 0 565 0
565 -418 0 -418 0 -36 -74 c-21 -41 -86 -166 -145 -278 -59 -112 -133 -252
-163 -311 -30 -59 -57 -107 -61 -107 -3 0 -15 21 -26 48 -12 26 -47 94 -78
152 -31 58 -87 164 -125 235 -37 72 -91 176 -121 233 l-53 102 -288 0 c-159 0
-288 -4 -288 -8 0 -4 4 -12 9 -18 4 -5 50 -90 101 -189 51 -99 108 -209 128
-243 l35 -64 -64 -124 c-35 -68 -67 -124 -71 -124 -4 0 -9 8 -12 18 -4 10 -63
126 -132 258 -69 131 -156 296 -192 366 l-67 127 -294 3 c-184 2 -301 -1 -312
-7z"/>
<path d="M243 4909 c-60 -11 -124 -42 -151 -71 l-22 -25 -1 -509 0 -509 266 0
266 0 1 214 c0 118 2 220 5 227 4 12 71 14 369 14 l364 0 0 105 0 105 -364 0
c-323 0 -365 2 -370 16 -11 30 -6 200 6 217 12 15 48 17 368 19 l355 3 3 103
3 102 -528 -1 c-290 -1 -547 -5 -570 -10z"/>
<path d="M1480 4423 c0 -471 1 -500 19 -529 25 -42 74 -70 152 -89 50 -11 133
-15 377 -15 l313 0 -3 103 -3 102 -145 5 c-80 3 -151 9 -158 13 -10 7 -12 105
-12 455 l1 447 -271 3 -270 2 0 -497z"/>
<path d="M6921 4904 c-80 -21 -147 -62 -201 -121 -56 -62 -80 -123 -80 -207 1
-142 81 -218 350 -331 164 -69 315 -142 330 -160 17 -20 4 -62 -23 -77 -16
-10 -102 -14 -332 -15 -170 -2 -313 -3 -317 -3 -5 0 -8 -45 -8 -100 l0 -100
453 0 c482 0 527 4 619 51 60 31 145 115 170 168 29 66 29 153 -1 211 -46 88
-99 124 -406 278 -133 66 -247 128 -255 137 -12 14 -11 20 2 43 9 15 29 30 45
34 15 5 156 8 313 8 157 0 295 0 308 0 21 0 22 3 22 100 l0 100 -467 -1 c-376
0 -479 -3 -522 -15z"/>
<path d="M8278 4904 c-32 -7 -76 -23 -97 -34 -74 -37 -71 -12 -71 -516 l0
-451 25 -27 c32 -34 100 -63 178 -76 36 -6 276 -10 565 -10 l503 0 -3 100 -3
99 -351 3 c-279 2 -354 6 -367 17 -14 11 -17 34 -17 127 l0 114 370 0 370 0 0
105 0 105 -370 0 -371 0 3 117 c3 114 4 118 28 130 19 10 108 13 365 12 l340
0 3 100 3 101 -523 -1 c-410 0 -535 -4 -580 -15z"/>
<path d="M5023 3483 c-22 -4 -23 -9 -23 -104 0 -83 -2 -99 -14 -92 -8 4 -58
49 -112 98 -53 50 -101 92 -105 93 -5 2 -9 -82 -9 -187 l0 -191 33 3 32 2 3
103 3 103 32 -27 c18 -14 68 -59 111 -98 43 -39 83 -71 88 -71 5 0 10 82 11
182 2 145 -1 184 -11 188 -8 3 -14 4 -15 4 -1 -1 -12 -4 -24 -6z"/>
<path d="M5583 3473 c-3 -7 -3 -68 -2 -135 4 -107 7 -128 27 -160 48 -78 157
-97 231 -41 52 40 62 76 59 220 l-3 126 -32 2 -33 3 0 -114 c0 -156 -17 -193
-91 -194 -25 0 -42 7 -58 24 -20 21 -22 34 -22 132 -1 145 -4 155 -41 152 -17
-1 -33 -8 -35 -15z"/>
<path d="M6004 3475 c-3 -6 -3 -92 -2 -190 l3 -180 125 0 125 0 0 35 0 35 -92
3 -93 3 0 154 0 154 -31 -2 c-17 -1 -33 -7 -35 -12z"/>
<path d="M7234 3475 c-2 -5 -5 -53 -6 -105 l-3 -95 -110 103 c-60 56 -113 102
-116 102 -12 0 -14 -35 -11 -208 l3 -173 32 4 32 3 5 104 c4 92 7 102 20 89
70 -69 212 -189 218 -186 4 3 6 88 4 190 l-3 184 -31 -1 c-17 -1 -32 -5 -34
-11z"/>
<path d="M7786 3483 c-2 -3 31 -51 75 -106 l79 -102 0 -88 0 -88 33 3 32 3 3
91 3 90 74 94 c40 52 72 97 70 100 -2 4 -22 5 -44 4 -37 -1 -45 -7 -86 -60
-26 -33 -49 -60 -53 -61 -4 -1 -28 26 -54 60 -43 57 -50 62 -87 63 -22 1 -42
-1 -45 -3z"/>
<path d="M8425 3481 c-3 -2 -5 -89 -5 -193 l0 -188 125 0 c131 0 128 -1 128
45 0 8 -1 20 -2 26 -1 7 -31 10 -91 7 l-90 -4 -2 155 -3 154 -28 1 c-15 1 -30
0 -32 -3z"/>
<path d="M4025 3466 c-34 -15 -92 -76 -106 -113 -28 -74 5 -165 78 -217 35
-24 52 -29 100 -30 61 0 119 22 130 50 3 9 -3 25 -15 36 -19 19 -21 19 -43 4
-34 -23 -110 -21 -142 4 -36 28 -52 81 -37 124 23 72 96 103 164 71 35 -17 38
-17 56 0 30 27 25 41 -23 64 -49 24 -117 27 -162 7z"/>
<path d="M4394 3465 c-94 -41 -137 -149 -98 -243 36 -88 122 -134 212 -114 91
21 144 83 150 176 3 54 0 66 -26 107 -50 78 -155 110 -238 74z m151 -85 c80
-75 35 -200 -72 -200 -87 0 -145 81 -110 155 35 73 128 95 182 45z"/>
<path d="M5222 3460 c-63 -39 -68 -124 -10 -172 29 -25 40 -28 104 -28 72 0
95 -10 100 -46 4 -27 -26 -36 -133 -37 l-108 -2 0 -35 0 -35 108 -3 c122 -3
161 9 190 57 31 52 19 105 -32 148 -21 18 -39 22 -95 23 -75 0 -110 17 -99 48
11 29 24 32 136 32 l107 0 0 35 0 35 -117 0 c-100 0 -123 -3 -151 -20z"/>
<path d="M6224 3466 c-15 -39 -1 -51 64 -54 l62 -3 0 -155 0 -155 33 4 32 3 3
152 3 152 59 0 60 0 0 35 0 35 -155 0 c-126 0 -157 -3 -161 -14z"/>
<path d="M6603 3295 c-51 -101 -89 -186 -85 -189 5 -3 22 -3 38 -1 16 2 32 4
35 4 4 1 12 15 19 31 12 30 13 30 90 30 l78 0 21 -35 c16 -28 27 -35 50 -35
16 0 32 4 35 9 6 9 -169 364 -182 369 -4 1 -49 -81 -99 -183z m137 -47 c0 -5
-18 -8 -40 -8 -22 0 -40 3 -40 8 0 4 10 23 21 42 l21 34 19 -34 c10 -19 18
-38 19 -42z"/>
<path d="M7502 3458 c-58 -28 -94 -83 -100 -152 -12 -152 156 -255 287 -175
37 22 39 41 7 62 -21 14 -26 14 -45 1 -29 -21 -95 -20 -127 1 -14 9 -33 33
-41 53 -21 50 -2 107 46 139 40 27 68 29 115 6 34 -16 37 -16 56 2 30 27 25
41 -23 64 -55 27 -119 26 -175 -1z"/>
<path d="M8640 3445 l0 -35 60 0 59 0 3 -152 3 -153 35 0 35 0 3 153 3 152 59
0 60 0 0 35 0 35 -160 0 -160 0 0 -35z"/>
<path d="M9062 3293 l3 -188 85 0 c72 0 92 4 128 25 95 54 126 178 65 263 -46
67 -92 87 -196 87 l-87 0 2 -187z m178 102 c36 -19 60 -62 60 -109 0 -65 -74
-120 -147 -108 -22 3 -23 7 -23 118 l0 114 40 0 c23 0 54 -7 70 -15z"/>
</g>
</svg>
